Working with the 2021 American Community Survey with R and tidycensus
…
---

* ACS data are returned with five columns: `GEOID`, `NAME`, `variable`, `estimate`, and `moe`

```r
median_income
```

```
## # A tibble: 3,221 × 5
##    GEOID NAME                     variable   estimate   moe
##    <chr> <chr>                    <chr>         <dbl> <dbl>
##  1 01001 Autauga County, Alabama  B19013_001    62660  4834
##  2 01003 Baldwin County, Alabama  B19013_001    64346  2377
##  3 01005 Barbour County, Alabama  B19013_001    36422  3282
##  4 01007 Bibb County, Alabama     B19013_001    54277  7325
##  5 01009 Blount County, Alabama   B19013_001    52830  3197
##  6 01011 Bullock County, Alabama  B19013_001    29063  7174
##  7 01013 Butler County, Alabama   B19013_001    45236  3880
##  8 01015 Calhoun County, Alabama  B19013_001    50977  1889
##  9 01017 Chambers County, Alabama B19013_001    47232  5252
## 10 01019 Cherokee County, Alabama B19013_001    43475  3643
## # … with 3,211 more rows
```
…
---

* ACS data are returned with five columns: `GEOID`, `NAME`, `variable`, `estimate`, and `moe`

```r
median_income_1yr
```

```
## # A tibble: 841 × 5
##    GEOID NAME                       variable   estimate   moe
##    <chr> <chr>                      <chr>         <dbl> <dbl>
##  1 01003 Baldwin County, Alabama    B19013_001    63866  5457
##  2 01015 Calhoun County, Alabama    B19013_001    46524  6711
##  3 01043 Cullman County, Alabama    B19013_001    55517  6722
##  4 01049 DeKalb County, Alabama     B19013_001    41800  6689
##  5 01051 Elmore County, Alabama     B19013_001    59032  8600
##  6 01055 Etowah County, Alabama     B19013_001    45298  4507
##  7 01069 Houston County, Alabama    B19013_001    46931  3484
##  8 01073 Jefferson County, Alabama  B19013_001    55006  1969
##  9 01077 Lauderdale County, Alabama B19013_001    50218  7743
## 10 01081 Lee County, Alabama        B19013_001    52424  4686
## # … with 831 more rows
```
…
---

```r
income_table
```

```
## # A tibble: 54,757 × 5
##    GEOID NAME                    variable   estimate   moe
##    <chr> <chr>                   <chr>         <dbl> <dbl>
##  1 01001 Autauga County, Alabama B19001_001    21856   424
##  2 01001 Autauga County, Alabama B19001_002     1213   287
##  3 01001 Autauga County, Alabama B19001_003     1051   313
##  4 01001 Autauga County, Alabama B19001_004     1062   309
##  5 01001 Autauga County, Alabama B19001_005     1324   322
##  6 01001 Autauga County, Alabama B19001_006     1048   266
##  7 01001 Autauga County, Alabama B19001_007      723   258
##  8 01001 Autauga County, Alabama B19001_008      672   188
##  9 01001 Autauga County, Alabama B19001_009     1240   342
## 10 01001 Autauga County, Alabama B19001_010      731   237
## # … with 54,747 more rows
```
…
]

---

```r
mn_income
```

```
## # A tibble: 87 × 5
##    GEOID NAME                         variable   estimate   moe
##    <chr> <chr>                        <chr>         <dbl> <dbl>
##  1 27001 Aitkin County, Minnesota     B19013_001    50900  2019
##  2 27003 Anoka County, Minnesota      B19013_001    88680  1163
##  3 27005 Becker County, Minnesota     B19013_001    64296  2108
##  4 27007 Beltrami County, Minnesota   B19013_001    55910  2933
##  5 27009 Benton County, Minnesota     B19013_001    65529  2225
##  6 27011 Big Stone County, Minnesota  B19013_001    58095  4005
##  7 27013 Blue Earth County, Minnesota B19013_001    65000  2446
##  8 27015 Brown County, Minnesota      B19013_001    62999  2334
##  9 27017 Carlton County, Minnesota    B19013_001    68579  2910
## 10 27019 Carver County, Minnesota     B19013_001   107890  3192
## # … with 77 more rows
```
…
]

---

```r
age_sex_table
```

```
## # A tibble: 2,548 × 5
##    GEOID NAME    variable   estimate   moe
##    <chr> <chr>   <chr>         <dbl> <dbl>
##  1 01    Alabama B01001_001  5039877    NA
##  2 01    Alabama B01001_002  2445896  5868
##  3 01    Alabama B01001_003   149482  2753
##  4 01    Alabama B01001_004   154786  5044
##  5 01    Alabama B01001_005   168349  5077
##  6 01    Alabama B01001_006    97886  2970
##  7 01    Alabama B01001_007    70364  3696
##  8 01    Alabama B01001_008    38216  3736
##  9 01    Alabama B01001_009    32896  3278
## 10 01    Alabama B01001_010    90846  4401
## # … with 2,538 more rows
```
…
]

---

```r
age_sex_table_wide
```

```
## # A tibble: 52 × 100
##    GEOID NAME    B0100…¹ B0100…² B0100…³ B0100…⁴ B0100…⁵ B0100…⁶ B0100…⁷ B0100…⁸
##    <chr> <chr>     <dbl>   <dbl>   <dbl>   <dbl>   <dbl>   <dbl>   <dbl>   <dbl>
##  1 01    Alabama  5.04e6      NA  2.45e6    5868  149482    2753  154786    5044
##  2 72    Puerto…  3.26e6      NA  1.54e6    3969   49739    2447   77392    4089
##  3 04    Arizona  7.28e6      NA  3.63e6    2852  203199    1688  232179    6421
##  4 05    Arkans…  3.03e6      NA  1.49e6    4590   91430    2900  103629    5153
##  5 06    Califo…  3.92e7      NA  1.96e7    6432 1129355    3475 1210580   14702
##  6 08    Colora…  5.81e6      NA  2.94e6    3980  158361    2228  171525    5655
##  7 09    Connec…  3.61e6      NA  1.77e6    2237   90173    1059   98412    4130
##  8 10    Delawa…  1.00e6      NA  4.86e5    1201   27366     480   30336    2696
##  9 11    Distri…  6.70e5      NA  3.19e5     601   20882      56   16256    2122
## 10 12    Florida  2.18e7      NA  1.07e7    8241  558584    3735  584591   12459
## # … with 42 more rows, 90 more variables: B01001_005E <dbl>, B01001_005M <dbl>,
## #   B01001_006E <dbl>, B01001_006M <dbl>, B01001_007E <dbl>, B01001_007M <dbl>,
## #   B01001_008E <dbl>, B01001_008M <dbl>, B01001_009E <dbl>, B01001_009M <dbl>,
## #   B01001_010E <dbl>, B01001_010M <dbl>, B01001_011E <dbl>, B01001_011M <dbl>,
## #   B01001_012E <dbl>, B01001_012M <dbl>, B01001_013E <dbl>, B01001_013M <dbl>,
## #   B01001_014E <dbl>, B01001_014M <dbl>, B01001_015E <dbl>, B01001_015M <dbl>,
## #   B01001_016E <dbl>, B01001_016M <dbl>, B01001_017E <dbl>, …
```
…
]

---

```r
ca_education
```

```
## # A tibble: 174 × 5
##    GEOID NAME                       variable            estimate   moe
##    <chr> <chr>                      <chr>                  <dbl> <dbl>
##  1 06001 Alameda County, California percent_high_school     16.7   0.4
##  2 06001 Alameda County, California percent_bachelors       28.3   0.3
##  3 06001 Alameda County, California percent_graduate        21.3   0.3
##  4 06003 Alpine County, California  percent_high_school     25.7   7.5
##  5 06003 Alpine County, California  percent_bachelors       20.6   7.5
##  6 06003 Alpine County, California  percent_graduate        18.7   8.5
##  7 06005 Amador County, California  percent_high_school     30.7   2.2
##  8 06005 Amador County, California  percent_bachelors       13.6   1.8
##  9 06005 Amador County, California  percent_graduate         5.9   1.1
## 10 06007 Butte County, California   percent_high_school     22.3   0.9
## # … with 164 more rows
```
…
## Finding the largest values

* dplyr's `arrange()` function sorts data based on values in one or more columns, and `filter()` helps you query data based on column values

* Example: what counties in the US have the lowest and highest median household incomes?

```r
library(tidyverse)

arrange(median_income, estimate)
```

```
## # A tibble: 3,221 × 5
##    GEOID NAME                              variable   estimate   moe
##    <chr> <chr>                             <chr>         <dbl> <dbl>
##  1 72055 Guánica Municipio, Puerto Rico    B19013_001    12856  1386
##  2 72045 Comerío Municipio, Puerto Rico    B19013_001    14666  1925
##  3 72015 Arroyo Municipio, Puerto Rico     B19013_001    14933  1660
##  4 72147 Vieques Municipio, Puerto Rico    B19013_001    14942  2258
##  5 72083 Las Marías Municipio, Puerto Rico B19013_001    15353  3090
##  6 72001 Adjuntas Municipio, Puerto Rico   B19013_001    15375  1242
##  7 72097 Mayagüez Municipio, Puerto Rico   B19013_001    15501   776
##  8 72079 Lajas Municipio, Puerto Rico      B19013_001    15593  1764
##  9 72107 Orocovis Municipio, Puerto Rico   B19013_001    15637  1796
## 10 72141 Utuado Municipio, Puerto Rico     B19013_001    15812  1182
## # … with 3,211 more rows
```

---

```r
arrange(median_income, desc(estimate))
```

```
## # A tibble: 3,221 × 5
##    GEOID NAME                           variable   estimate   moe
##    <chr> <chr>                          <chr>         <dbl> <dbl>
##  1 51107 Loudoun County, Virginia       B19013_001   156821  2662
##  2 51610 Falls Church city, Virginia    B19013_001   155071 17392
##  3 06085 Santa Clara County, California B19013_001   140258  1577
##  4 06081 San Mateo County, California   B19013_001   136837  2151
##  5 51059 Fairfax County, Virginia       B19013_001   133974  1433
##  6 06041 Marin County, California       B19013_001   131008  4163
##  7 24027 Howard County, Maryland        B19013_001   129549  2980
##  8 51013 Arlington County, Virginia     B19013_001   128145  2836
##  9 08035 Douglas County, Colorado       B19013_001   127443  2115
## 10 36059 Nassau County, New York        B19013_001   126576  1363
## # … with 3,211 more rows
```
---

## Refining your analysis with `filter()`

* The `filter()` function subsets data according to a specified condition, much like a SQL query

```r
# Remove Puerto Rico from the median income dataset
income_states_dc <- filter(median_income, !str_detect(NAME, "Puerto Rico"))

arrange(income_states_dc, estimate)
```

```
## # A tibble: 3,143 × 5
##    GEOID NAME                           variable   estimate   moe
##    <chr> <chr>                          <chr>         <dbl> <dbl>
##  1 28055 Issaquena County, Mississippi  B19013_001    17109 10468
##  2 21237 Wolfe County, Kentucky         B19013_001    24349  4388
##  3 28051 Holmes County, Mississippi     B19013_001    24958  2750
##  4 48127 Dimmit County, Texas           B19013_001    25000  8169
##  5 22035 East Carroll Parish, Louisiana B19013_001    25049  6945
##  6 46071 Jackson County, South Dakota   B19013_001    25357  7628
##  7 28119 Quitman County, Mississippi    B19013_001    25783  3336
##  8 46121 Todd County, South Dakota      B19013_001    26250  4499
##  9 48377 Presidio County, Texas         B19013_001    26395  4952
## 10 13309 Wheeler County, Georgia        B19013_001    26776  3605
## # … with 3,133 more rows
```
…
```r
highest_incomes <- median_income %>%
* separate(NAME, into = c("county", "state"), sep = ", ") %>%
* group_by(state) %>%
* filter(estimate == max(estimate))
```

---

```r
highest_incomes
```

```
## # A tibble: 51 × 6
## # Groups:   state [51]
##    GEOID county                     state                variable  estim…¹   moe
##    <chr> <chr>                      <chr>                <chr>       <dbl> <dbl>
##  1 01117 Shelby County              Alabama              B19013_0…   82592  2846
##  2 02016 Aleutians West Census Area Alaska               B19013_0…   90708  2916
##  3 04013 Maricopa County            Arizona              B19013_0…   72944   519
##  4 05007 Benton County              Arkansas             B19013_0…   76887  2240
##  5 06085 Santa Clara County         California           B19013_0…  140258  1577
##  6 08035 Douglas County             Colorado             B19013_0…  127443  2115
##  7 09001 Fairfield County           Connecticut          B19013_0…  101194  1352
##  8 10003 New Castle County          Delaware             B19013_0…   78428  1622
##  9 11001 District of Columbia       District of Columbia B19013_0…   93547  1718
## 10 12109 St. Johns County           Florida              B19013_0…   88794  2505
## # … with 41 more rows, and abbreviated variable name ¹​estimate
```
…
]

---

```r
hi_pums
```

```
## # A tibble: 14,959 × 8
##    SERIALNO      SPORDER  WGTP PWGTP  AGEP ST    HHT   SEX  
##    <chr>           <dbl> <dbl> <dbl> <dbl> <chr> <chr> <chr>
##  1 2021HU0423830       1   134   133    32 15    1     2    
##  2 2021HU0423830       2   134   132    31 15    1     1    
##  3 2021HU0423830       3   134    98    12 15    1     1    
##  4 2021HU0423830       4   134    99     9 15    1     1    
##  5 2021HU0423830       5   134   119     2 15    1     2    
##  6 2021HU0423891       1   107   107    72 15    1     1    
##  7 2021HU0423891       2   107   130    68 15    1     2    
##  8 2021HU0423891       3   107   238    39 15    1     2    
##  9 2021HU0423891       4   107   134    95 15    1     2    
## 10 2021HU0423891       5   107   167    38 15    1     1    
## # … with 14,949 more rows
```
…
]

---

```r
hi_pums_recoded
```

```
## # A tibble: 14,959 × 11
##    SERIALNO  SPORDER  WGTP PWGTP  AGEP ST    HHT   SEX   ST_la…¹ HHT_l…² SEX_l…³
##    <chr>       <dbl> <dbl> <dbl> <dbl> <chr> <chr> <chr> <ord>   <ord>   <ord>  
##  1 2021HU04…       1   134   133    32 15    1     2     Hawaii… Marrie… Female 
##  2 2021HU04…       2   134   132    31 15    1     1     Hawaii… Marrie… Male   
##  3 2021HU04…       3   134    98    12 15    1     1     Hawaii… Marrie… Male   
##  4 2021HU04…       4   134    99     9 15    1     1     Hawaii… Marrie… Male   
##  5 2021HU04…       5   134   119     2 15    1     2     Hawaii… Marrie… Female 
##  6 2021HU04…       1   107   107    72 15    1     1     Hawaii… Marrie… Male   
##  7 2021HU04…       2   107   130    68 15    1     2     Hawaii… Marrie… Female 
##  8 2021HU04…       3   107   238    39 15    1     2     Hawaii… Marrie… Female 
##  9 2021HU04…       4   107   134    95 15    1     2     Hawaii… Marrie… Female 
## 10 2021HU04…       5   107   167    38 15    1     1     Hawaii… Marrie… Male   
## # … with 14,949 more rows, and abbreviated variable names ¹​ST_label,
## #   ²​HHT_label, ³​SEX_label
```
…
]

---

```r
hi_pums_filtered
```

```
## # A tibble: 8,532 × 8
##    SERIALNO      SPORDER  WGTP PWGTP  AGEP ST    HHT   SEX  
##    <chr>           <dbl> <dbl> <dbl> <dbl> <chr> <chr> <chr>
##  1 2020HU0245490       3     4     4    34 15    1     2    
##  2 2020HU0245555       1     8     8    49 15    3     2    
##  3 2020HU0245753       2    25    27    38 15    1     2    
##  4 2020HU0245942       2    83    67    38 15    1     2    
##  5 2020HU0247148       4    23    49    47 15    1     2    
##  6 2020HU0247499       2    24    23    49 15    1     2    
##  7 2020HU0247555       3     1     3    49 15    1     2    
##  8 2020HU0247818       1    68    68    36 15    1     2    
##  9 2020HU0250570       2    19    18    38 15    1     2    
## 10 2020HU0250646       2    92    38    46 15    1     2    
## # … with 8,522 more rows
```
…
---

```r
hi_age_by_puma
```

```
## # A tibble: 72,790 × 7
##    SERIALNO      SPORDER  WGTP PWGTP  AGEP PUMA  ST   
##    <chr>           <dbl> <dbl> <dbl> <dbl> <chr> <chr>
##  1 2020HU0244454       1     1     1    70 00200 15   
##  2 2020HU0244454       2     1     9    69 00200 15   
##  3 2020HU0244501       1     7     7    54 00307 15   
##  4 2020HU0244501       2     7     8    53 00307 15   
##  5 2020HU0244501       3     7     9    22 00307 15   
##  6 2020HU0244501       4     7    34    18 00307 15   
##  7 2020HU0244501       5     7    12    23 00307 15   
##  8 2020HU0244782       1    14    14    68 00200 15   
##  9 2020HU0244991       1     2     2    68 00302 15   
## 10 2020HU0244991       2     2    13    63 00302 15   
## # … with 72,780 more rows
```
…
---

```r
hi_pums_replicate
```

```
## # A tibble: 14,959 × 87
##    SERIALNO    SPORDER  AGEP PUMA  ST     WGTP PWGTP PWGTP1 PWGTP2 PWGTP3 PWGTP4
##    <chr>         <dbl> <dbl> <chr> <chr> <dbl> <dbl>  <dbl>  <dbl>  <dbl>  <dbl>
##  1 2021GQ0000…       1    22 00301 15        0    65    135      0     65    132
##  2 2021GQ0000…       1    42 00100 15        0    15     15      0      0      0
##  3 2021GQ0000…       1    21 00100 15        0    46     46     96     45     84
##  4 2021GQ0001…       1     9 00301 15        0    15     11     17     14      0
##  5 2021GQ0001…       1    21 00301 15        0    90     88     85    182     80
##  6 2021GQ0001…       1    20 00306 15        0    27     24     48     26     21
##  7 2021GQ0001…       1    22 00306 15        0    98      0     95      2     87
##  8 2021GQ0001…       1    22 00301 15        0   114      2    109    115    101
##  9 2021GQ0002…       1    22 00304 15        0   144      2    132    136    153
## 10 2021GQ0002…       1    19 00200 15        0    92      0     83     86    195
## # … with 14,949 more rows, and 76 more variables: PWGTP5 <dbl>, PWGTP6 <dbl>,
## #   PWGTP7 <dbl>, PWGTP8 <dbl>, PWGTP9 <dbl>, PWGTP10 <dbl>, PWGTP11 <dbl>,
## #   PWGTP12 <dbl>, PWGTP13 <dbl>, PWGTP14 <dbl>, PWGTP15 <dbl>, PWGTP16 <dbl>,
## #   PWGTP17 <dbl>, PWGTP18 <dbl>, PWGTP19 <dbl>, PWGTP20 <dbl>, PWGTP21 <dbl>,
## #   PWGTP22 <dbl>, PWGTP23 <dbl>, PWGTP24 <dbl>, PWGTP25 <dbl>, PWGTP26 <dbl>,
## #   PWGTP27 <dbl>, PWGTP28 <dbl>, PWGTP29 <dbl>, PWGTP30 <dbl>, PWGTP31 <dbl>,
## #   PWGTP32 <dbl>, PWGTP33 <dbl>, PWGTP34 <dbl>, PWGTP35 <dbl>, …
```
…
